ASM806v1	Lactobacillus johnsonii NCC 533
ASM1198v1	Lactobacillus acidophilus NCFM
ASM1442v1	Lactobacillus gasseri ATCC33323
ASM1538v1	Lactobacillus helveticus DPC 4571
ASM5606v1	Lactobacillus delbrueckii bulgaricus ATCC11842
ASM9140v1	Lactobacillus johnsonii FI9785
ASM16577v3	Lactobacillus helveticus R0052
ASM18283v1	Lactobacillus delbrueckii bulgaricus ND02
ASM18951v1	Lactobacillus helveticus H10
ASM19116v1	Lactobacillus delbrueckii bulgaricus 2038
ASM19154v1	Lactobacillus amylovorus 30SC
ASM19411v1	Lactobacillus amylovorus GRL1118
ASM20498v1	Lactobacillus johnsonii DPC 6026
ASM21478v1	Lactobacillus kefiranofaciens 1
ASM38967v2	Lactobacillus acidophilus La-14
ASM46688v3	Lactobacillus crispatus 2029
ASM49867v1	Lactobacillus johnsonii N6-2
ASM52571v1	Lactobacillus helveticus H9
ASM76113v1	Lactobacillus sp wkB8
ASM93462v1	Lactobacillus acidophilus FSI4 isolate Yogurt
ASM96101v1	Lactobacillus helveticus KLDS1-8701
ASM100602v1	Lactobacillus helveticus MB2-1
ASM104240v1	Lactobacillus acetotolerans NBRC13120
ASM130828v1	Lactobacillus helveticus CAUH18
ASM131424v2	Lactobacillus gallinarum HFD4
ASM170209v1	Lactobacillus helveticus D76
ASM171474v1	Lactobacillus johnsonii BS15
ASM174626v2	Lactobacillus helveticus D75
ASM188892v1	Lactobacillus delbrueckii jakobsenii ZN7a-9
ASM188894v1	Lactobacillus delbrueckii delbrueckii KCTC 13731
ASM188896v1	Lactobacillus delbrueckii sunkii JCM 17838
ASM188898v1	Lactobacillus delbrueckii lactis KCTC 3035
ASM190841v1	Lactobacillus delbrueckii indicus JCM 15610
ASM193623v1	Lactobacillus jensenii SNUV360
ASM195313v1	Lactobacillus delbrueckii bulgaricus DSM 20080
ASM200088v1	Lactobacillus delbrueckii bulgaricus ND04
ASM207510v1	Lactobacillus amylolyticus L6
ASM214257v1	Lactobacillus delbrueckii delbrueckii TUA4408L
ASM215888v1	Lactobacillus gasseri 4M13
ASM217683v1	Lactobacillus johnsonii UMNLJ22
ASM217685v1	Lactobacillus johnsonii UMNLJ21
ASM222430v1	Lactobacillus acidophilus ATCC53544
ASM227809v1	Lactobacillus delbrueckii lactis DSM 20072
ASM228577v1	Lactobacillus delbrueckii lactis KCTC 3034
ASM228621v1	Lactobacillus acidophilus LA1
ASM228790v1	Lactobacillus gasseri DSM 14869
ASM270637v1	Lactobacillus amylovorus DSM 20531
ASM276233v1	Lactobacillus terrae NIBRBAC000499792
ASM284991v1	Lactobacillus helveticus FAM8627
ASM284993v1	Lactobacillus helveticus FAM8105
ASM284995v1	Lactobacillus helveticus FAM22155
ASM297091v1	Lactobacillus sp CBA3605
ASM297093v1	Lactobacillus sp CBA3606
ASM302883v1	Lactobacillus sp D1501
ASM304706v1	Lactobacillus acidophilus DSM 20079
ASM315093v1	Lactobacillus apis ESL0185
ASM315102v1	Lactobacillus kullabergensis ESL0186
ASM317369v1	Lactobacillus helsingborgensis ESL0183
ASM331691v1	Lactobacillus johnsonii Byun-jo-01
ASM342839v1	Lactobacillus johnsonii IDCC9203
ASM358468v1	Lactobacillus paragasseri JCM 5343
ASM359765v1	Lactobacillus delbrueckii bulgaricus KLDS1-0207
ASM361097v1	Lactobacillus helveticus LH99
ASM379506v1	Lactobacillus crispatus CO3MRSI1
ASM395284v1	Lactobacillus acidophilus YT1
ASM395586v1	Lactobacillus helveticus LH5
ASM397156v1	Lactobacillus crispatus AB70
ASM399935v1	Lactobacillus amylolyticus L5
ASM401131v1	Lactobacillus johnsonii ZLJ010
ASM411475v1	Lactobacillus helveticus IDCC3801
ASM588607v1	Lactobacillus paragasseri JV-V03
ASM674030v1	Lactobacillus delbrueckii delbrueckii NBRC3202
ASM883148v1	Lactobacillus acetotolerans LA749
ASM918466v1	Lactobacillus kefiranofaciens LKK75
ASM949839v1	Lactobacillus helveticus LZ-R-5
ASM973025v1	Lactobacillus jensenii FDAARGOS_749
ASM973027v1	Lactobacillus crispatus FDAARGOS_743
ASM973412v1	Lactobacillus delbrueckii TS1-06
ASM973853v1	Lactobacillus acetotolerans CN247
ASM976918v1	Lactobacillus johnsonii DC22-2
ASM976920v1	Lactobacillus crispatus DC21-1
ASM983438v1	Lactobacillus sp JM1
ASM993352v1	Lactobacillus crispatus C25
ASM1058692v1	Lactobacillus johnsonii G2A
ASM1074895v1	Lactobacillus iners KY
ASM1105869v1	Lactobacillus iners C0094A1
ASM1105871v1	Lactobacillus iners C0059G1
ASM1105873v1	Lactobacillus iners C0011D1
ASM1105875v1	Lactobacillus iners C0210C1
ASM1105877v1	Lactobacillus iners C0322A1
ASM1105879v1	Lactobacillus iners C0254C1
ASM1284865v1	Lactobacillus acetotolerans LJ49
ASM1334294v1	Lactobacillus acidophilus LA-G80-111
ASM1336391v1	Lactobacillus gasseri EJL
ASM1345699v1	Lactobacillus crispatus B4
ASM1348784v1	Lactobacillus sp 3B-2020
ASM1348786v1	Lactobacillus johnsonii 3DG
ASM1348790v1	Lactobacillus crispatus 1D
ASM1405868v1	Lactobacillus johnsonii NCK2677
ASM1465658v1	Lactobacillus kefiranofaciens 1207
ASM1484103v1	Lactobacillus johnsonii GHZ10a
ASM1537778v1	Lactobacillus delbrueckii P3MRA
ASM1570918v1	Lactobacillus helveticus TK-J7A
ASM1664759v1	Lactobacillus ultunensis Kx293C1
ASM1676779v1	Lactobacillus crispatus PRL2021
ASM1686195v1	Limosilactobacillus fermentum ike38
ASM1749866v1	Lactobacillus gasseri HL75
ASM1758422v1	Lactobacillus delbrueckii lactis MAG_rmk202_ldel
ASM1763888v1	Lactobacillus gasseri HL20
ASM1784057v1	Lactobacillus gasseri HL70
ASM1789434v1	Lactobacillus taiwanensis CLG01
ASM1840845v1	Lactobacillus helveticus JCM1004
ASM1888532v1	Lactobacillus crispatus PMC201
ASM1898723v1	Lactobacillus crispatus ATCC33820
ASM1944392v1	Lactobacillus helveticus LH2020
ASM1946926v1	Lactobacillus panisapium ESL0416
ASM1946932v1	Lactobacillus panisapium ESL0413
ASM1946934v1	Lactobacillus panisapium ESL0411
ASM1946936v1	Lactobacillus panisapium ESL0409
ASM2004200v1	Lactobacillus crispatus Lc1700
ASM2004212v1	Lactobacillus crispatus Lc1226
ASM2004222v1	Lactobacillus crispatus Lc116
ASM2014999v1	Lactobacillus amylovorus MT30
ASM2088343v1	Lactobacillus acidophilus NC55
ASM2088709v1	Lactobacillus crispatus KT-11
ASM2099118v1	Lactobacillus gasseri Lg1266
ASM2099120v1	Lactobacillus gasseri Lg637
ASM2099538v1	Lactobacillus gasseri Lg1199
ASM2109111v1	Lactobacillus delbrueckii lactis CIDCA 133
ASM2127892v1	Lactobacillus crispatus lc83
ASM2127894v1	Lactobacillus crispatus lc31
Lactobacillus_oligofermentans_LMG_22743_genome	Paucilactobacillus oligofermentans DSM 15707
Lactobacillus_rhamnosus_CECT_8800	Lacticaseibacillus rhamnosus BPL5-I
Lactobacillus_bulgaricus_ACA-DC_87	Lactobacillus delbrueckii bulgaricus ACA-DC-87-I
Lactobacillus_delbrueckii_subsp._lactis	Lactobacillus delbrueckii lactis1
44927_E01	Lactobacillus paragasseri NCTC13720
UHGG_MGYG-HGUT-02384	Lactobacillus helveticus MGYG-HGUT-02384
UHGG_MGYG-HGUT-02387	Lactobacillus gasseri MGYG-HGUT-02387
Lact_bact_ASF360_V1	Lactobacillus_sp_ASF360
ASM76061v1	Lactobacillus_sp_wkB10
ASM180763v1	Lactobacillus_sp_HMSC17G08
ASM180765v1	Lactobacillus_sp_HMSC24D01
ASM180841v1	Lactobacillus_sp_HMSC08B12
ASM180948v1	Lactobacillus_sp_HMSC072E07
ASM180964v1	Lactobacillus_sp_HMSC068B07
ASM180976v1	Lactobacillus_sp_HMSC064F12
ASM180997v1	Lactobacillus_sp_HMSC077C11
ASM181011v1	Lactobacillus_sp_HMSC078F07
ASM181215v1	Lactobacillus_sp_HMSC066G01
ASM181252v1	Lactobacillus_sp_HMSC068F07
ASM181268v1	Lactobacillus_sp_HMSC061B07
ASM181382v1	Lactobacillus_sp_HMSC073B09
ASM181433v1	Lactobacillus_sp_HMSC075D02
ASM181440v1	Lactobacillus_sp_HMSC056D05
ASM181543v1	Lactobacillus_sp_HMSC073D04
ASM181606v1	Lactobacillus_sp_HMSC25A02
ASM255373v1	Lactobacillus_sp_UMNPBX17
ASM255377v1	Lactobacillus_sp_UMNPBX16
ASM255378v1	Lactobacillus_sp_UMNPBX15
ASM255380v1	Lactobacillus_sp_UMNPBX19
ASM255383v1	Lactobacillus_sp_UMNPBX14
ASM255384v1	Lactobacillus_sp_UMNPBX13
ASM255385v1	Lactobacillus_sp_UMNPBX18
ASM255389v1	Lactobacillus_sp_UMNPBX11
ASM255391v1	Lactobacillus_sp_UMNPBX10
ASM255392v1	Lactobacillus_sp_UMNPBX9
ASM255395v1	Lactobacillus_sp_UMNPBX12
ASM255397v1	Lactobacillus_sp_UMNPBX6
ASM255399v1	Lactobacillus_sp_UMNPBX5
ASM255401v1	Lactobacillus_sp_UMNPBX8
ASM255402v1	Lactobacillus_sp_UMNPBX3
ASM255404v1	Lactobacillus_sp_UMNPBX7
ASM255407v1	Lactobacillus_sp_UMNPBX2
ASM255408v1	Lactobacillus_sp_UMNPBX1
ASM255411v1	Lactobacillus_sp_UMNPBX4
ASM290007v1	Lactobacillus_sp_ATCC_15578
ASM304609v1	Lactobacillus_sp_PFC-70
ASM305322v1	Lactobacillus_sp_DS18_6
ASM305326v1	Lactobacillus_sp_DS13_6
ASM306206v1	Lactobacillus_sp_DS22_6
ASM306208v1	Lactobacillus_sp_DS2_6
ASM306210v1	Lactobacillus_sp_DS15_6
ASM306212v1	Lactobacillus_sp_DS9_6
ASM306214v1	Lactobacillus_sp_DS3_6
ASM306218v1	Lactobacillus_sp_DS1_6
ASM344499v1	Lactobacillus_sp_ASM344499v1
ASM345154v1	Lactobacillus_sp_ASM345154v1
ASM345259v1	Lactobacillus_sp_ASM345259v1
ASM345487v1	Lactobacillus_sp_ASM345487v1
ASM348240v1	Lactobacillus_sp_ASM348240v1
ASM348592v1	Lactobacillus_sp_ASM348592v1
ASM351372v1	Lactobacillus_sp_ASM351372v1
ASM352368v1	Lactobacillus_sp_ASM352368v1
ASM353619v1	Lactobacillus_sp_ASM353619v1
ASM369275v1	Lactobacillus_sp_ESL0247
ASM369277v1	Lactobacillus_sp_ESL0236
ASM369280v1	Lactobacillus_sp_ESL0230
ASM369282v1	Lactobacillus_sp_ESL0228
ASM369284v1	Lactobacillus_sp_ESL0263
ASM369286v1	Lactobacillus_sp_ESL0245
ASM369288v1	Lactobacillus_sp_ESL0234
ASM369290v1	Lactobacillus_sp_ESL0225
ASM369292v1	Lactobacillus_sp_ESL0262
ASM369293v1	Lactobacillus_sp_ESL0260
ASM369296v1	Lactobacillus_sp_ESL0246
ASM369298v1	Lactobacillus_sp_ESL0237
ASM369299v1	Lactobacillus_sp_ESL0233
ASM369302v1	Lactobacillus_sp_ESL0261
ASM369304v1	Lactobacillus_sp_ESL0259
ASM386226v1	Lactobacillus_sp_ASM386226v1
ASM386227v1	Lactobacillus_sp_ASM386227v1
ASM386228v1	Lactobacillus_sp_ASM386228v1
ASM386229v1	Lactobacillus_sp_ASM386229v1
ASM709543v1	Lactobacillus_sp_c10Ua232AE
ASM757093v1	Lactobacillus_sp_LL6
ASM808412v1	Lactobacillus_sp_CAB1-7
ASM808413v1	Lactobacillus_sp_LSI2-1
ASM808496v1	Lactobacillus_sp_SL9-6
ASM966377v1	Lactobacillus_sp_0.1XD8-4
ASM1175429v1	Lactobacillus_sp_L.sR5
ASM1251334v1	Lactobacillus_sp_ASM1251334v1
ASM1264106v1	Lactobacillus_sp_ZJLC29-4
ASM1264107v1	Lactobacillus_sp_LC28-10
ASM1264109v1	Lactobacillus_sp_ZJLC28-8
ASM1264110v1	Lactobacillus_sp_ZJLC21-8
ASM1264118v1	Lactobacillus_sp_ZJLC3-7
ASM1279885v1	Lactobacillus_sp_ASM1279885v1
ASM1284367v1	Lactobacillus_sp_MRS-253-APC-2B
ASM1360758v1	Lactobacillus_sp_XV13L
ASM1439707v1	Lactobacillus_sp_Marseille-P7033
ASM1449371v1	Lactobacillus_sp_ASM1449371v1
ASM1479665v1	Lactobacillus_sp_ASM1479665v1
ASM1479668v1	Lactobacillus_sp_ASM1479668v1
ASM1480389v1	Lactobacillus_sp_ASM1480389v1
ASM1480390v1	Lactobacillus_sp_ASM1480390v1
ASM1480391v1	Lactobacillus_sp_ASM1480391v1
ASM1483020v1	Lactobacillus_sp_M31
ASM1610088v1	Lactobacillus_sp_M0398
ASM1610092v1	Lactobacillus_sp_W8093
ASM1610093v1	Lactobacillus_sp_W8173
ASM1610096v1	Lactobacillus_sp_W8090
ASM1610097v1	Lactobacillus_sp_W8174
ASM1610098v1	Lactobacillus_sp_W8089
ASM1610102v1	Lactobacillus_sp_W8088
ASM1610104v1	Lactobacillus_sp_W8087
ASM1610105v1	Lactobacillus_sp_W8085
ASM1610107v1	Lactobacillus_sp_W8086
ASM1610126v1	Lactobacillus_sp_M0403
ASM1610127v1	Lactobacillus_sp_M0345
ASM1610162v1	Lactobacillus_sp_M0396
ASM1610202v1	Lactobacillus_sp_M0393
ASM1610204v1	Lactobacillus_sp_M0392
ASM1610205v1	Lactobacillus_sp_W8172
ASM1610206v1	Lactobacillus_sp_W8171
ASM1610208v1	Lactobacillus_sp_M0390
ASM1610212v1	Lactobacillus_sp_W8092
ASM1646389v1	Lactobacillus_sp_CRM56-2
ASM1674281v1	Lactobacillus_sp_A27
ASM1675723v1	Lactobacillus_sp_GPR40-2
ASM1675725v1	Lactobacillus_sp_GPB7-4
ASM1686060v1	Lentilactobacillus_fungorum
ASM1930353v1	Lactobacillus_sp_Sy-1
ASM15933v1	Lactobacillus_jensenii_ASM15933v1
ASM29683v1	Lactobacillus_hominis_ASM29683v1
Lact_cate_OT_569_V1	Eggerthia_catenaformis_OT_569_V1
ASM42260v1	Eggerthia_catenaformis_ASM42260v1
ASM97077v1	Lactobacillus_melliventris_ASM97077v1
ASM143612v1	Lactobacillus_hominis_ASM143612v1
ASM143645v1	Lactobacillus_jensenii_ASM143645v1
ASM284804v1	Lactobacillus_jensenii_ASM284804v1
ASM320282v1	Lactobacillus_melliventris_ASM320282v1
ASM778591v1	Lactobacillus_jensenii_ASM778591v1
ASM778609v1	Lactobacillus_jensenii_ASM778609v1
ASM1334693v1	Lactobacillus_melliventris_ASM1334693v1
ASM1432418v1	Lactobacillus_melliventris_ASM1432418v1
ASM1945954v1	Lactobacillus_jensenii_ASM1945954v1
UHGG_MGYG-HGUT-02360	Lactobacillus_hominis_UHGG_MGYG-HGUT-02360
